(**** start.gcode for The Replicator, dual head ****)
M103 (disable RPM)
M73 P0 (enable build progress)
G21 (set units to mm)
G90 (set positioning to absolute)
G10 P1 X0 Y0 Z0 (Designate T0 Offset)
G10 P2 X33 Y0 Z0 (Designate T1 Offset)
M109 S{HBP_TEMP} T0 (set HBP temperature)
M104 S{T0_TEMP} T0 (set extruder temperature)
G54 (Recall offset cooridinate system)
(**** begin homing ****)
G162 X Y F2500 (home XY axes maximum)
G161 Z F1100 (home Z axis minimum)
G92 Z-5 (set Z to -5)
G1 Z0.0 (move Z to "0")
G161 Z F100 (home Z axis minimum)
M132 X Y Z A B (Recall stored home offsets for XYZAB axis)
(**** end homing ****)
G1 X-110.5 Y-74 Z150 F3300.0 (move to waiting position)
G130 X20 Y20 Z20 A20 B20 (Lower stepper Vrefs while heating)
M6 T0 (wait for toolhead, and HBP to reach temperature)
G130 X127 Y127 Z40 A127 B127 (Set Stepper motor Vref to defaults)
M108 R3.0 T0
G0 X-110.5 Y-74 (Position Nozzle)
G0 Z0.2      (Position Height)
M108 R4.0    (Set Extruder Speed)
M101         (Start Extruder)
G4 P1500     (Create Anchor)
(**** end of start.gcode ****)
